<?xml version="1.0" encoding="utf-8"?>
<svg xmlns="http://www.w3.org/2000/svg" xmlns:xlink="http://www.w3.org/1999/xlink" style="margin: auto; background: rgb(241, 242, 243); display: block; shape-rendering: auto;" width="201px" height="201px" viewBox="0 0 100 100" preserveAspectRatio="xMidYMid">
<rect x="2.5" y="2.5" width="23" height="23" fill="#689cc5">
  <animate attributeName="fill" values="#5e6fa3;#689cc5;#689cc5" keyTimes="0;0.08333333333333333;1" dur="1.923076923076923s" repeatCount="indefinite" begin="0s" calcMode="discrete"></animate>
</rect><rect x="26.5" y="2.5" width="23" height="23" fill="#689cc5">
  <animate attributeName="fill" values="#5e6fa3;#689cc5;#689cc5" keyTimes="0;0.08333333333333333;1" dur="1.923076923076923s" repeatCount="indefinite" begin="0.16025641025641024s" calcMode="discrete"></animate>
</rect><rect x="50.5" y="2.5" width="23" height="23" fill="#689cc5">
  <animate attributeName="fill" values="#5e6fa3;#689cc5;#689cc5" keyTimes="0;0.08333333333333333;1" dur="1.923076923076923s" repeatCount="indefinite" begin="0.3205128205128205s" calcMode="discrete"></animate>
</rect><rect x="74.5" y="2.5" width="23" height="23" fill="#689cc5">
  <animate attributeName="fill" values="#5e6fa3;#689cc5;#689cc5" keyTimes="0;0.08333333333333333;1" dur="1.923076923076923s" repeatCount="indefinite" begin="0.4807692307692307s" calcMode="discrete"></animate>
</rect><rect x="2.5" y="26.5" width="23" height="23" fill="#689cc5">
  <animate attributeName="fill" values="#5e6fa3;#689cc5;#689cc5" keyTimes="0;0.08333333333333333;1" dur="1.923076923076923s" repeatCount="indefinite" begin="1.7628205128205128s" calcMode="discrete"></animate>
</rect><rect x="74.5" y="26.5" width="23" height="23" fill="#689cc5">
  <animate attributeName="fill" values="#5e6fa3;#689cc5;#689cc5" keyTimes="0;0.08333333333333333;1" dur="1.923076923076923s" repeatCount="indefinite" begin="0.641025641025641s" calcMode="discrete"></animate>
</rect><rect x="2.5" y="50.5" width="23" height="23" fill="#689cc5">
  <animate attributeName="fill" values="#5e6fa3;#689cc5;#689cc5" keyTimes="0;0.08333333333333333;1" dur="1.923076923076923s" repeatCount="indefinite" begin="1.6025641025641024s" calcMode="discrete"></animate>
</rect><rect x="74.5" y="50.5" width="23" height="23" fill="#689cc5">
  <animate attributeName="fill" values="#5e6fa3;#689cc5;#689cc5" keyTimes="0;0.08333333333333333;1" dur="1.923076923076923s" repeatCount="indefinite" begin="0.8012820512820512s" calcMode="discrete"></animate>
</rect><rect x="2.5" y="74.5" width="23" height="23" fill="#689cc5">
  <animate attributeName="fill" values="#5e6fa3;#689cc5;#689cc5" keyTimes="0;0.08333333333333333;1" dur="1.923076923076923s" repeatCount="indefinite" begin="1.4423076923076923s" calcMode="discrete"></animate>
</rect><rect x="26.5" y="74.5" width="23" height="23" fill="#689cc5">
  <animate attributeName="fill" values="#5e6fa3;#689cc5;#689cc5" keyTimes="0;0.08333333333333333;1" dur="1.923076923076923s" repeatCount="indefinite" begin="1.282051282051282s" calcMode="discrete"></animate>
</rect><rect x="50.5" y="74.5" width="23" height="23" fill="#689cc5">
  <animate attributeName="fill" values="#5e6fa3;#689cc5;#689cc5" keyTimes="0;0.08333333333333333;1" dur="1.923076923076923s" repeatCount="indefinite" begin="1.1217948717948718s" calcMode="discrete"></animate>
</rect><rect x="74.5" y="74.5" width="23" height="23" fill="#689cc5">
  <animate attributeName="fill" values="#5e6fa3;#689cc5;#689cc5" keyTimes="0;0.08333333333333333;1" dur="1.923076923076923s" repeatCount="indefinite" begin="0.9615384615384615s" calcMode="discrete"></animate>
</rect>
<!-- [ldio] generated by https://loading.io/ --></svg>