<?xml version="1.0" encoding="utf-8"?>
<svg xmlns="http://www.w3.org/2000/svg" xmlns:xlink="http://www.w3.org/1999/xlink" style="margin: auto; background: rgb(241, 242, 243); display: block; shape-rendering: auto;" width="200px" height="200px" viewBox="0 0 100 100" preserveAspectRatio="xMidYMid">
<g transform="translate(27,27)">
  <rect x="-19" y="-19" width="38" height="38" fill="#93dbe9">
    <animateTransform attributeName="transform" type="scale" repeatCount="indefinite" dur="1.0638297872340425s" keyTimes="0;1" values="1.1;1" begin="-0.3191489361702127s"></animateTransform>
  </rect>
</g>
<g transform="translate(73,27)">
  <rect x="-19" y="-19" width="38" height="38" fill="#689cc5">
    <animateTransform attributeName="transform" type="scale" repeatCount="indefinite" dur="1.0638297872340425s" keyTimes="0;1" values="1.1;1" begin="-0.2127659574468085s"></animateTransform>
  </rect>
</g>
<g transform="translate(27,73)">
  <rect x="-19" y="-19" width="38" height="38" fill="#5e6fa3">
    <animateTransform attributeName="transform" type="scale" repeatCount="indefinite" dur="1.0638297872340425s" keyTimes="0;1" values="1.1;1" begin="0s"></animateTransform>
  </rect>
</g>
<g transform="translate(73,73)">
  <rect x="-19" y="-19" width="38" height="38" fill="#3b4368">
    <animateTransform attributeName="transform" type="scale" repeatCount="indefinite" dur="1.0638297872340425s" keyTimes="0;1" values="1.1;1" begin="-0.10638297872340426s"></animateTransform>
  </rect>
</g>
<!-- [ldio] generated by https://loading.io/ --></svg>